<?xml version="1.0" standalone="no"?>
<!DOCTYPE svg PUBLIC "-//W3C//DTD SVG 20010904//EN"
 "http://www.w3.org/TR/2001/REC-SVG-20010904/DTD/svg10.dtd">
<svg version="1.0" xmlns="http://www.w3.org/2000/svg"
 width="1000.000000pt" height="1000.000000pt" viewBox="0 0 1000.000000 1000.000000"
 preserveAspectRatio="xMidYMid meet">
<metadata>
Created by potrace 1.11, written by Peter Selinger 2001-2013
</metadata>
<g transform="translate(0.000000,1000.000000) scale(0.100000,-0.100000)"
fill="#000000" stroke="none">
<path d="M669 9276 c-2 -2 -44 -6 -94 -10 -49 -3 -99 -7 -110 -10 -11 -2 -47
-7 -80 -11 -77 -9 -310 -53 -353 -66 l-33 -11 5 -237 c3 -130 7 -249 10 -266
2 -16 7 -61 11 -99 7 -71 10 -95 20 -161 3 -22 8 -53 11 -70 3 -16 7 -37 9
-45 2 -8 6 -33 10 -55 10 -73 57 -268 91 -388 101 -347 261 -704 447 -997 607
-955 1601 -1585 2857 -1810 139 -25 160 -28 194 -29 60 -2 14 -14 -134 -37
-132 -20 -435 -88 -594 -135 -363 -105 -753 -272 -1036 -444 -47 -28 -96 -57
-109 -65 -49 -30 -258 -179 -340 -244 -578 -456 -1014 -1090 -1251 -1821 -23
-71 -44 -141 -47 -154 -2 -14 -6 -28 -8 -31 -5 -8 -70 -300 -79 -350 -3 -19
-7 -44 -10 -55 -2 -11 -7 -47 -11 -80 -3 -32 -8 -62 -10 -65 -1 -3 -6 -39 -9
-80 -4 -41 -9 -88 -12 -105 -2 -16 -7 -139 -10 -272 l-5 -241 93 -21 c118 -27
247 -50 320 -57 32 -3 68 -7 80 -10 53 -10 246 -19 423 -19 170 1 400 11 415
19 3 2 34 7 70 10 293 30 705 141 1028 277 307 130 600 301 879 515 118 91
157 124 272 229 300 274 606 661 822 1040 254 445 465 1028 570 1572 13 68 26
123 29 123 3 0 12 -33 19 -72 7 -40 15 -80 16 -88 102 -485 252 -924 454
-1327 376 -751 942 -1363 1631 -1765 513 -299 1102 -483 1685 -525 182 -14
655 -6 707 11 7 3 40 7 73 10 33 3 74 8 90 11 83 14 197 37 258 51 l68 16 -5
237 c-3 130 -7 250 -9 266 -3 17 -8 61 -12 98 -3 37 -8 76 -9 85 -2 9 -7 40
-10 67 -4 28 -10 66 -12 85 -13 89 -67 330 -98 442 -366 1294 -1290 2239
-2616 2675 -217 71 -543 153 -710 178 -62 9 -204 35 -207 38 -1 2 48 11 110
20 131 19 149 22 242 43 39 9 81 18 95 20 119 21 443 117 630 186 476 177 871
403 1235 707 117 98 371 351 467 466 307 368 541 792 698 1262 55 168 121 429
144 573 3 19 8 44 10 56 2 12 7 45 11 74 4 29 8 62 10 72 4 21 13 103 24 233
4 44 8 161 10 261 2 140 -1 183 -11 191 -13 11 -106 35 -178 47 -19 3 -57 10
-85 15 -27 5 -77 13 -110 16 -33 4 -69 9 -80 11 -120 26 -757 25 -890 0 -11
-2 -47 -7 -80 -10 -110 -13 -398 -74 -557 -120 -448 -129 -893 -351 -1278
-640 -104 -78 -105 -78 -235 -191 -552 -480 -1000 -1161 -1260 -1917 -76 -222
-152 -493 -189 -673 -4 -16 -9 -41 -12 -55 -3 -14 -10 -54 -15 -90 -11 -67
-24 -95 -26 -60 -1 11 -9 57 -18 100 -9 44 -19 93 -21 108 -37 204 -204 749
-285 927 -10 22 -30 69 -44 105 -30 71 -154 324 -205 416 -330 592 -796 1102
-1338 1463 -521 347 -1149 577 -1737 637 -33 3 -71 8 -85 11 -29 6 -585 15
-591 9z m519 -117 c13 -2 12 -29 -3 -107 -5 -27 -14 -102 -21 -177 -3 -38 -8
-71 -9 -73 -2 -2 -99 -5 -217 -7 -201 -4 -279 -8 -355 -20 l-33 -5 -1 93 c-2
115 2 281 5 285 2 1 30 5 62 8 32 3 60 7 62 8 3 3 488 -2 510 -5z m8216 -3
c22 -4 41 -7 42 -9 4 -3 7 -186 5 -290 l-1 -87 -27 5 c-56 10 -252 19 -415 20
l-168 0 -1 25 c-1 27 -2 46 -14 160 -4 41 -8 78 -10 81 -2 3 -6 26 -9 52 l-6
46 53 3 c85 5 509 0 551 -6z m-7999 -22 c22 -3 78 -11 125 -19 47 -8 103 -17
124 -21 22 -3 49 -9 61 -14 l21 -8 -23 -133 c-12 -74 -22 -149 -23 -167 0 -31
-2 -33 -27 -28 -32 6 -106 17 -143 21 -14 1 -54 5 -90 9 -36 4 -78 9 -95 11
-16 1 -47 3 -68 4 l-38 1 6 58 c3 31 7 71 10 87 22 168 27 200 31 207 5 8 28
6 129 -8z m7327 -33 c13 -74 23 -156 33 -252 l5 -56 -90 -7 c-50 -4 -105 -9
-123 -11 -60 -8 -122 -16 -147 -20 -14 -2 -41 -6 -61 -9 l-36 -5 -11 92 c-7
51 -14 103 -17 117 -2 14 -7 36 -10 50 -16 84 -25 75 98 99 62 12 135 24 162
28 28 3 70 9 95 12 87 13 94 11 102 -38z m-8257 -150 l0 -189 -55 -7 c-30 -4
-85 -13 -122 -21 -37 -7 -82 -16 -100 -19 -18 -3 -40 -8 -49 -11 -9 -2 -16 1
-16 8 -1 7 -4 90 -8 183 -4 94 -9 173 -11 177 -2 4 4 9 13 12 27 8 183 36 233
43 25 3 47 7 49 9 2 2 18 4 35 4 l31 0 0 -189z m9191 173 c13 -2 36 -6 51 -9
15 -2 52 -10 82 -16 31 -7 62 -12 69 -12 11 0 13 -34 8 -185 -4 -102 -9 -188
-11 -192 -3 -5 -22 -4 -42 0 -61 14 -119 25 -217 40 -38 6 -72 13 -75 15 -5 2
-6 277 -2 364 1 13 43 11 137 -5z m-7594 -140 c410 -131 874 -381 1218 -657
212 -170 459 -416 601 -597 24 -30 46 -57 50 -60 15 -12 152 -204 211 -295 93
-144 234 -385 225 -385 -2 0 -28 35 -57 78 -62 90 -207 277 -265 342 -151 168
-286 301 -415 410 -35 30 -71 61 -79 68 -78 73 -420 306 -581 396 -190 107
-434 216 -650 291 -164 57 -409 124 -519 141 -51 8 -53 11 -46 62 18 136 21
154 36 229 l10 51 89 -23 c48 -14 126 -36 172 -51z m6127 19 c20 -102 37 -217
36 -248 0 -27 -4 -30 -45 -38 -246 -46 -592 -157 -850 -271 -638 -283 -1244
-783 -1640 -1350 -30 -42 -56 -74 -58 -71 -8 8 196 339 288 470 530 746 1249
1266 2097 1519 82 24 151 45 154 45 4 1 11 -25 18 -56z m-7055 -284 c2 -2 6
-110 9 -239 3 -129 8 -247 12 -262 4 -22 2 -28 -12 -29 -10 0 -27 -2 -38 -3
-11 -2 -51 -6 -90 -11 -83 -9 -108 -13 -115 -15 -3 -1 -8 -2 -12 -2 -3 1 -37
-5 -75 -13 -37 -8 -79 -16 -93 -19 -14 -2 -40 -8 -57 -12 -18 -3 -33 -4 -33 0
0 3 -11 61 -24 129 -14 67 -28 149 -31 182 -4 33 -9 69 -11 79 -2 11 -6 56
-10 100 -3 45 -8 84 -11 89 -2 4 8 7 24 8 15 0 37 2 48 4 11 2 72 7 135 11 63
3 116 7 117 8 4 3 263 -1 267 -5z m8091 -3 c118 -7 198 -15 203 -21 7 -7 -1
-127 -13 -195 -1 -8 -6 -40 -10 -70 -12 -95 -52 -310 -58 -317 -3 -2 -24 1
-48 6 -77 17 -272 50 -339 57 -36 4 -72 8 -80 10 -8 1 -25 3 -36 3 -18 1 -21
6 -17 34 2 17 6 133 9 257 3 124 7 230 8 235 4 11 207 12 381 1z m-7795 -17
c128 -15 128 -15 185 -23 l50 -7 -3 -236 -2 -236 -212 2 c-116 0 -212 2 -213
3 -14 15 -30 474 -18 505 5 13 55 11 213 -8z m7332 12 c12 -2 -3 -495 -16
-508 -2 -2 -98 -4 -214 -6 l-212 -2 -1 190 c0 105 -2 209 -5 231 -3 23 -1 45
4 48 11 6 41 12 122 21 25 3 56 8 70 10 14 3 59 8 100 11 41 4 76 7 77 8 3 2
62 0 75 -3z m-8295 -33 c9 -16 9 -13 17 -114 4 -45 9 -93 11 -105 2 -13 11
-69 19 -124 16 -98 20 -125 31 -175 13 -61 13 -71 2 -75 -56 -16 -280 -87
-291 -91 -8 -3 -15 3 -19 18 -29 129 -67 312 -72 348 -3 25 -8 56 -10 70 -3
14 -7 45 -10 70 -3 25 -8 64 -11 87 -5 41 -5 42 28 48 55 10 61 11 103 20 62
12 77 15 125 21 25 3 47 8 49 10 8 8 20 4 28 -8z m9128 -3 c22 -3 88 -15 148
-27 l107 -21 -5 -41 c-3 -23 -7 -59 -10 -81 -4 -39 -29 -195 -41 -260 -8 -44
-55 -249 -58 -252 -1 -1 -27 6 -57 17 -30 10 -100 33 -156 50 -57 17 -103 32
-103 34 0 1 9 45 19 97 20 94 27 139 37 214 3 22 7 50 9 63 2 13 7 56 11 95 6
68 12 120 13 124 1 1 11 0 24 -2 12 -2 40 -6 62 -10z m-7790 -35 c22 -5 52
-11 66 -14 113 -20 451 -125 599 -186 41 -17 89 -36 105 -43 17 -7 100 -47
185 -89 552 -273 1039 -678 1409 -1173 65 -87 241 -349 241 -359 0 -3 14 -29
31 -58 83 -140 223 -442 276 -593 38 -111 113 -418 148 -605 19 -104 23 -128
30 -180 3 -25 10 -70 15 -100 5 -30 11 -80 15 -112 l6 -56 -53 -4 c-79 -6
-590 -1 -688 6 -182 14 -283 23 -340 31 -14 2 -52 7 -85 11 -33 3 -67 8 -75 9
-8 2 -51 8 -95 15 -44 7 -89 14 -100 16 -11 2 -33 7 -50 10 -70 12 -203 54
-355 112 -387 147 -793 379 -1083 621 -138 115 -191 164 -308 280 -319 319
-543 629 -745 1032 -70 140 -134 289 -134 312 0 9 13 17 33 20 17 3 84 16 147
30 63 14 131 28 150 31 19 2 53 7 76 11 l41 6 33 -103 c306 -972 1045 -1760
2003 -2138 209 -82 522 -167 682 -186 22 -3 47 -7 55 -9 8 -2 42 -7 75 -10 33
-4 71 -8 85 -11 14 -2 72 -6 130 -9 177 -9 274 -15 300 -19 14 -3 62 -7 107
-10 94 -6 118 5 107 52 -16 67 -56 215 -65 239 -5 14 -12 42 -15 62 -24 151
-131 485 -221 691 -216 490 -564 947 -966 1268 -40 31 -74 59 -77 62 -15 17
-225 158 -313 212 -393 238 -930 423 -1347 464 -94 9 -94 9 -100 35 -6 21 -6
229 -2 387 2 57 3 57 67 42z m6437 -42 c3 -120 4 -354 0 -380 -5 -31 -12 -34
-102 -43 -90 -9 -93 -9 -255 -41 -909 -175 -1738 -749 -2227 -1544 -184 -298
-328 -640 -407 -965 -17 -71 -44 -175 -58 -230 -31 -114 -29 -105 -43 -165 -6
-25 -13 -52 -16 -61 -2 -9 2 -24 11 -33 13 -12 31 -14 98 -10 45 3 93 7 107
10 14 2 72 6 130 9 288 15 331 19 465 42 50 8 105 17 124 19 19 3 55 9 80 15
25 6 53 12 61 14 8 2 42 10 75 19 33 9 69 19 81 21 35 8 234 75 313 106 951
375 1680 1149 1997 2122 l38 117 41 -5 c22 -3 51 -8 65 -10 14 -3 41 -7 60
-10 60 -10 264 -57 277 -64 24 -13 -175 -427 -308 -639 -167 -268 -343 -487
-573 -717 -365 -364 -788 -649 -1256 -846 -169 -71 -402 -150 -481 -163 -19
-3 -47 -8 -64 -11 -16 -3 -43 -7 -60 -10 -16 -3 -39 -7 -51 -9 -12 -2 -43 -7
-70 -10 -27 -4 -65 -9 -84 -11 -19 -2 -60 -7 -90 -10 -30 -3 -66 -8 -80 -10
-14 -2 -63 -7 -110 -10 -47 -3 -114 -8 -150 -11 -82 -7 -607 -12 -678 -6 l-53
4 7 51 c3 29 7 66 9 82 40 333 145 787 235 1015 156 395 378 765 661 1104 90
108 309 331 404 412 117 100 131 111 230 186 352 264 727 462 1124 594 113 38
336 101 386 110 17 3 46 9 65 13 68 17 70 16 72 -41z m-6578 -479 c3 -3 8 -30
11 -60 6 -67 10 -97 24 -179 16 -98 21 -123 27 -142 6 -21 16 -19 -142 -23
-67 -1 -153 -5 -192 -9 l-69 -7 -12 47 c-18 69 -48 222 -56 274 -3 25 -8 57
-11 72 -4 20 -1 27 13 30 26 6 401 3 407 -3z m7071 -29 c-3 -19 -8 -52 -11
-74 -3 -21 -8 -48 -10 -60 -2 -11 -6 -34 -9 -51 -3 -16 -15 -69 -26 -117 l-21
-88 -72 6 c-39 4 -128 7 -198 8 -70 1 -129 4 -132 6 -2 3 1 34 9 70 13 64 19
104 31 205 4 28 8 57 10 65 1 8 3 25 3 37 1 27 11 28 254 28 l178 1 -6 -36z
m-7563 -11 c3 -19 9 -54 12 -79 10 -76 48 -259 61 -292 5 -13 2 -18 -11 -19
-11 0 -28 -2 -39 -4 -11 -2 -39 -7 -63 -10 -65 -9 -230 -43 -291 -61 -29 -8
-54 -14 -56 -12 -20 22 -138 420 -127 429 9 9 176 45 252 54 30 4 64 9 75 11
11 2 47 7 80 10 33 4 61 8 63 9 2 2 11 2 20 1 10 -2 19 -16 24 -37z m7758 26
c65 -6 78 -9 235 -36 66 -12 130 -25 142 -30 l22 -8 -30 -108 c-23 -88 -96
-312 -103 -320 -1 -1 -35 7 -76 17 -100 26 -314 66 -374 69 -13 1 -16 6 -11
19 8 20 42 174 51 228 3 20 7 45 9 54 10 50 19 116 17 122 -1 5 13 6 31 3 17
-2 57 -7 87 -10z m-6944 -25 c677 -117 1300 -438 1780 -915 150 -149 224 -235
340 -390 140 -189 277 -424 369 -634 46 -105 56 -142 20 -73 -30 57 -141 228
-203 312 -96 131 -192 241 -331 381 -364 363 -800 630 -1296 793 -101 33 -272
80 -334 91 -13 2 -47 9 -75 14 -83 17 -108 21 -171 27 -33 3 -62 7 -65 9 -3 2
-51 7 -106 11 -54 3 -102 8 -105 10 -4 2 -10 25 -15 51 -4 27 -8 50 -9 53 0 3
-4 27 -9 53 -4 27 -9 57 -11 67 -2 11 -7 50 -10 87 -4 37 -10 72 -13 77 -7 11
94 1 244 -24z m6251 23 c-3 -4 -8 -39 -12 -77 -3 -38 -11 -94 -16 -125 -6 -31
-14 -83 -20 -116 -6 -33 -13 -63 -17 -66 -4 -4 -43 -9 -87 -13 -349 -26 -677
-104 -1005 -239 -643 -263 -1194 -735 -1559 -1337 -35 -58 -61 -98 -58 -90 44
121 164 358 261 514 220 356 515 673 868 934 53 40 101 72 107 72 5 0 11 4 13
8 13 32 383 230 578 309 153 63 415 147 520 167 14 2 45 9 70 15 50 11 161 30
230 38 25 3 46 6 47 7 8 7 84 5 80 -1z m1350 -143 c131 -42 131 -42 123 -69
-5 -14 -18 -57 -30 -96 -37 -120 -112 -315 -121 -315 -5 0 -31 9 -59 20 -28
11 -88 32 -133 47 -45 14 -85 29 -90 33 -4 3 9 51 28 106 19 54 48 148 64 207
17 59 33 112 36 117 3 5 15 6 28 1 12 -5 81 -28 154 -51z m-8997 8 c22 -86 62
-215 91 -297 16 -46 28 -86 26 -88 -5 -5 -279 -103 -288 -103 -9 0 -57 126
-110 290 l-47 145 36 14 c68 25 247 80 264 81 12 0 21 -13 28 -42z m1141 -327
c12 -1 22 -21 35 -73 88 -364 312 -827 551 -1142 319 -418 734 -758 1198 -981
130 -63 333 -145 356 -145 7 0 10 -3 7 -6 -4 -3 -55 6 -115 21 -781 188 -1472
656 -1939 1315 -132 186 -257 410 -347 625 -78 183 -141 374 -124 375 1 0 61
3 132 6 72 4 131 7 132 8 1 1 19 0 114 -3z m6769 -5 c58 -3 111 -5 118 -5 19
-1 15 -23 -28 -152 -158 -468 -436 -916 -784 -1264 -149 -149 -175 -172 -306
-276 -366 -292 -807 -508 -1265 -620 -66 -16 -124 -29 -130 -29 -5 1 48 23
120 51 696 268 1271 760 1660 1423 135 231 269 557 331 808 10 43 22 68 32 70
16 3 91 2 252 -6z m-6520 -11 c738 -77 1447 -419 1958 -947 128 -132 160 -169
262 -303 132 -174 214 -307 313 -505 103 -205 181 -415 202 -538 9 -51 14 -96
11 -100 -7 -12 -184 -14 -261 -3 -213 32 -445 92 -660 172 -276 102 -638 309
-878 503 -156 125 -387 359 -507 512 -242 309 -439 689 -554 1068 -20 65 -36
127 -36 136 0 19 7 19 150 5z m6168 -6 c4 -24 -71 -261 -133 -415 -222 -553
-617 -1057 -1101 -1407 -382 -275 -873 -482 -1313 -553 -18 -3 -43 -8 -55 -11
-37 -9 -286 -12 -291 -3 -3 5 1 48 9 97 23 145 100 346 220 578 187 361 394
629 721 931 63 58 232 188 329 253 174 116 331 202 538 295 192 86 536 186
743 216 44 7 89 14 100 16 11 2 54 7 95 10 41 4 76 7 77 8 11 9 58 -2 61 -15z
m-7363 -221 c239 -557 585 -1037 1032 -1435 242 -215 494 -389 828 -571 38
-21 8 -12 -101 32 -382 153 -703 336 -1006 573 -147 115 -182 146 -343 308
-273 273 -492 580 -669 934 -90 179 -89 164 -9 195 59 23 197 71 214 75 3 0
27 -50 54 -111z m8561 78 c171 -58 186 -65 178 -90 -9 -31 -120 -250 -167
-331 -171 -297 -351 -531 -591 -770 -361 -359 -790 -640 -1290 -844 -82 -34
-152 -61 -155 -61 -3 0 41 26 99 59 616 343 1128 825 1482 1396 135 219 192
330 326 638 9 20 16 37 17 37 1 0 46 -15 101 -34z m-4420 -2590 c-7 -58 -45
-312 -51 -347 -3 -13 -7 -35 -10 -49 -2 -14 -7 -40 -10 -58 -10 -62 -74 -333
-105 -445 -17 -62 -56 -173 -87 -247 -306 -739 -810 -1354 -1473 -1797 -404
-269 -826 -450 -1314 -563 -71 -17 -131 -28 -134 -25 -7 7 -9 452 -2 458 3 3
34 8 70 11 491 51 1003 231 1446 509 255 161 581 445 769 672 28 33 55 65 60
71 31 33 169 229 228 322 70 112 172 301 219 410 16 35 34 78 42 95 57 125
163 466 182 587 3 19 16 71 29 115 13 44 33 118 45 163 28 114 28 114 -111
107 -60 -3 -119 -8 -131 -11 -13 -2 -77 -7 -143 -9 -214 -9 -279 -16 -485 -51
-591 -100 -1139 -355 -1610 -748 -101 -84 -318 -298 -388 -381 -311 -374 -516
-740 -658 -1175 -19 -57 -38 -108 -42 -111 -10 -9 -187 21 -364 63 l-87 20 19
49 c11 26 42 98 69 158 222 485 551 932 945 1284 141 126 152 135 288 237 328
246 722 452 1119 583 91 30 150 45 289 72 35 7 302 42 375 50 33 3 74 8 90 10
17 2 89 7 160 11 72 3 131 8 133 9 2 2 145 3 318 3 l316 0 -6 -52z m904 41
c25 -3 85 -8 134 -12 50 -4 97 -8 105 -10 9 -1 50 -6 91 -10 41 -4 77 -8 80
-10 3 -1 32 -6 65 -10 33 -4 67 -9 75 -10 13 -1 97 -17 110 -20 3 -1 25 -5 50
-9 25 -4 101 -26 170 -48 440 -142 843 -356 1215 -646 61 -47 112 -89 115 -93
3 -3 28 -25 55 -49 183 -155 484 -485 597 -653 13 -19 46 -68 74 -108 82 -118
170 -269 249 -427 70 -138 157 -334 151 -339 -3 -4 -221 -53 -261 -60 -142
-24 -187 -29 -191 -21 -3 4 -20 54 -39 111 -111 344 -288 687 -500 972 -45 61
-91 120 -101 132 -10 12 -44 51 -74 87 -115 136 -328 335 -495 462 -85 65
-272 194 -280 194 -2 0 -29 16 -59 35 -71 45 -307 163 -421 211 -166 68 -435
153 -570 179 -22 5 -44 9 -50 10 -44 10 -127 25 -160 30 -181 26 -246 32 -435
40 -63 3 -124 7 -135 9 -11 2 -70 7 -131 11 -147 9 -145 12 -104 -142 39 -145
61 -229 90 -353 13 -52 44 -160 70 -240 130 -396 321 -747 589 -1080 97 -121
361 -387 471 -475 41 -33 77 -62 80 -65 29 -30 245 -176 357 -242 318 -188
717 -343 1037 -404 12 -2 32 -6 46 -9 14 -2 39 -7 55 -10 17 -3 41 -7 55 -10
13 -2 70 -10 126 -17 l102 -11 5 -36 c5 -47 1 -420 -5 -427 -16 -15 -429 97
-628 171 -1061 396 -1898 1215 -2314 2266 -64 160 -171 594 -201 809 -3 25
-10 70 -15 100 -5 30 -12 78 -15 105 -3 28 -8 65 -11 83 -3 18 -2 37 1 42 6
10 680 7 775 -3z m-1105 -190 c-3 -23 -8 -53 -10 -67 -3 -14 -7 -39 -10 -57
-8 -48 -77 -234 -133 -360 -294 -658 -817 -1208 -1459 -1535 -251 -129 -521
-226 -778 -282 -121 -26 -140 -29 -230 -42 -27 -3 -59 -8 -69 -10 -11 -2 -56
-6 -100 -9 -45 -4 -89 -9 -98 -11 -15 -4 -14 5 8 86 276 1008 1044 1833 2023
2176 228 79 477 137 646 151 39 3 71 6 72 7 1 0 33 -1 72 -2 l72 -4 -6 -41z
m755 39 c124 -10 380 -67 545 -121 828 -271 1501 -852 1886 -1626 93 -187 161
-363 227 -591 24 -81 32 -75 -98 -63 -117 10 -201 22 -345 50 -696 133 -1395
556 -1851 1120 -301 372 -551 875 -588 1182 l-7 52 73 3 c40 2 78 2 83 1 6 -1
39 -4 75 -7z m-1591 -60 c-2 -3 -47 -20 -99 -39 -485 -178 -962 -506 -1307
-898 -330 -377 -562 -799 -697 -1270 l-43 -150 -189 6 c-230 8 -213 6 -209 19
229 761 698 1401 1345 1833 191 128 399 239 595 317 39 16 79 32 90 37 45 20
237 79 335 104 58 14 119 30 135 35 36 10 50 12 44 6z m2425 -53 c835 -225
1565 -785 1998 -1533 123 -212 202 -386 288 -636 l39 -114 -24 -6 c-13 -3
-103 -7 -201 -7 l-178 -2 -42 146 c-129 440 -347 851 -637 1199 -104 126 -327
343 -452 444 -283 225 -559 385 -900 518 -118 46 -83 43 109 -9z m-3674 -54
c-8 -5 -67 -38 -130 -73 -147 -81 -301 -183 -460 -304 -69 -53 -127 -98 -130
-101 -3 -3 -36 -33 -75 -65 -119 -101 -354 -345 -478 -496 -235 -288 -459
-661 -592 -987 l-37 -91 -112 38 c-157 55 -176 63 -176 75 0 19 151 310 221
425 153 251 344 493 551 697 119 117 136 132 262 237 274 227 659 453 1021
599 139 56 164 65 135 46z m4821 -40 c613 -250 1111 -603 1504 -1064 33 -38
62 -72 65 -75 18 -16 157 -210 212 -295 139 -212 312 -545 285 -545 -2 0 -67
-22 -144 -49 l-141 -50 -37 92 c-146 355 -384 744 -644 1052 -99 117 -311 331
-431 435 -197 171 -483 372 -685 480 -82 45 -124 70 -114 70 4 0 62 -23 130
-51z m-2950 -626 c-5 -10 -22 -47 -37 -83 -15 -36 -51 -111 -80 -167 -287
-559 -704 -1006 -1252 -1342 -159 -97 -372 -197 -622 -290 -149 -56 -498 -139
-655 -157 -33 -3 -68 -8 -78 -10 -39 -7 -44 3 -35 69 16 125 28 200 35 232 2
11 7 34 9 50 3 17 9 33 12 37 4 4 39 10 77 13 39 3 86 8 105 10 100 12 199 26
221 30 13 3 40 8 59 11 69 11 307 74 415 109 234 78 498 201 685 319 136 86
308 210 389 281 179 155 289 267 446 456 82 98 226 308 281 409 15 28 29 48
31 46 3 -2 0 -12 -6 -23z m1093 -199 c130 -198 358 -461 541 -624 301 -267
680 -495 1050 -630 112 -41 310 -101 375 -114 14 -3 68 -14 120 -25 52 -11
115 -22 140 -26 25 -3 56 -8 70 -10 50 -8 181 -20 250 -24 24 -1 27 -6 43 -98
10 -54 20 -118 23 -143 3 -25 9 -69 13 -98 8 -55 3 -67 -27 -58 -9 3 -44 8
-77 11 -72 7 -124 15 -145 20 -8 3 -32 7 -53 11 -135 21 -394 96 -592 172
-798 307 -1492 972 -1829 1752 -41 95 -42 101 -3 40 19 -30 65 -101 101 -156z
m-1252 -766 c-11 -18 -37 -64 -59 -103 -129 -229 -316 -495 -473 -675 -30 -35
-63 -72 -73 -84 -10 -12 -58 -61 -106 -111 -401 -412 -867 -718 -1412 -926
-168 -64 -414 -137 -425 -126 -5 5 -30 133 -39 197 -3 25 -8 63 -11 86 l-6 41
44 7 c89 14 328 79 485 131 414 138 779 328 1134 591 336 250 687 613 908 942
44 65 67 86 33 30z m1309 -30 c128 -190 281 -372 468 -558 228 -226 375 -346
631 -515 190 -125 295 -185 481 -274 272 -130 533 -222 834 -291 162 -38 150
-33 150 -65 1 -17 -5 -63 -12 -104 -7 -40 -15 -92 -18 -115 -8 -57 -15 -76
-27 -76 -35 0 -339 96 -475 151 -737 294 -1378 814 -1823 1479 -79 119 -210
333 -210 344 0 4 -11 24 -25 46 -40 63 -20 46 26 -22z m-5039 -494 c43 -14 79
-28 82 -33 3 -4 -3 -30 -14 -57 -19 -51 -93 -297 -104 -347 -8 -34 -2 -35
-188 24 -97 31 -128 44 -128 57 0 23 51 180 102 318 l41 112 66 -25 c36 -14
101 -36 143 -49z m8998 -72 c24 -64 55 -157 70 -205 l28 -88 -24 -10 c-53 -19
-231 -77 -260 -83 l-32 -7 -22 83 c-12 46 -42 143 -66 217 -24 74 -43 135 -41
136 1 1 46 16 100 34 54 18 117 41 140 51 53 23 52 24 107 -128z m-8740 -3
c94 -22 213 -46 275 -55 22 -3 49 -7 60 -9 11 -2 23 -4 26 -4 4 -1 -4 -47 -17
-103 -14 -55 -27 -121 -30 -146 -3 -25 -7 -48 -9 -51 -2 -3 -6 -31 -10 -61 -4
-30 -9 -57 -11 -59 -12 -13 -471 59 -502 78 -11 7 -9 20 40 186 32 110 80 245
87 245 3 0 44 -9 91 -21z m8364 -116 c66 -204 87 -286 74 -295 -25 -14 -306
-62 -440 -74 -66 -6 -68 -6 -69 17 0 13 -2 33 -4 44 -2 11 -7 40 -11 65 -4 25
-8 50 -10 55 -1 6 -4 26 -8 46 -3 20 -8 42 -10 50 -3 8 -8 25 -10 39 -3 14
-10 42 -15 63 -5 21 -5 38 0 38 5 1 12 2 17 3 4 1 32 6 62 10 30 4 64 10 75
12 11 2 36 7 56 10 19 3 76 16 125 28 49 13 97 24 106 25 13 1 27 -29 62 -136z
m-7640 26 c113 -1 126 -3 122 -17 -3 -10 -8 -37 -11 -62 -3 -25 -8 -52 -11
-61 -3 -10 -6 -30 -9 -45 -8 -67 -15 -122 -20 -164 -3 -24 -9 -48 -14 -53 -7
-7 -251 -12 -384 -8 -37 1 -38 2 -33 29 3 15 8 50 12 77 3 28 19 108 35 180
16 71 29 131 29 134 0 2 35 0 79 -3 43 -4 135 -7 205 -7z m7075 -76 c19 -81
42 -201 57 -295 5 -37 5 -38 -28 -39 -116 -4 -382 1 -389 8 -4 4 -11 31 -14
58 -18 152 -38 282 -51 326 -4 15 11 17 137 18 78 0 144 2 145 4 1 1 29 4 62
5 l59 3 22 -88z m-8326 -236 c56 -19 126 -40 154 -47 58 -15 57 -9 33 -115
-12 -55 -21 -105 -25 -135 -1 -14 -5 -41 -9 -60 -10 -59 -15 -102 -22 -180 -4
-41 -8 -82 -10 -90 -1 -8 -3 -20 -3 -26 -1 -7 -44 -3 -128 12 -206 36 -208 36
-208 64 -1 53 30 252 69 450 13 61 39 160 42 160 2 0 50 -15 107 -33z m9397
-14 c6 -27 14 -57 16 -68 2 -11 7 -33 11 -50 9 -38 8 -32 18 -90 5 -27 9 -52
10 -55 1 -3 5 -30 10 -60 5 -30 9 -57 10 -60 4 -15 19 -149 19 -175 l1 -30
-110 -22 c-60 -12 -137 -24 -170 -25 l-60 -3 -1 35 c-1 19 -4 60 -8 90 -3 30
-9 75 -12 100 -3 25 -9 68 -14 95 -6 28 -13 68 -16 90 -3 22 -12 71 -20 108
-17 84 -17 77 4 77 9 0 76 20 147 44 72 24 135 45 141 45 7 1 17 -20 24 -46z
m-397 -93 c36 -190 47 -253 53 -295 3 -27 8 -59 10 -69 2 -11 6 -56 10 -100 3
-44 8 -84 10 -88 11 -18 -85 -27 -358 -34 l-238 -7 -1 159 c0 175 -5 285 -13
339 -3 19 -3 35 2 36 4 0 18 2 32 4 14 2 66 9 115 15 50 6 140 20 200 31 61
12 121 23 135 26 13 2 27 6 29 9 6 6 9 1 14 -26z m-8623 6 c98 -21 119 -26
165 -32 22 -2 51 -7 65 -9 33 -5 138 -17 170 -20 27 -1 27 2 17 -120 -3 -33
-6 -141 -6 -239 l-1 -179 -232 7 c-229 7 -320 12 -346 21 -16 6 -12 92 13 280
4 28 9 59 10 70 2 11 7 36 10 55 3 19 13 68 22 109 l16 73 36 -5 c20 -3 47 -8
61 -11z m935 -306 c0 -202 -2 -236 -15 -237 -15 -1 -151 -20 -199 -28 -18 -3
-185 -17 -211 -17 -27 -1 -28 9 -24 215 2 116 6 221 8 232 2 11 5 31 5 45 l1
25 218 0 217 0 0 -235z m7086 210 c0 -14 3 -34 5 -45 6 -28 13 -413 7 -434 -5
-18 -12 -18 -133 -6 -74 7 -137 15 -180 21 -19 3 -51 7 -70 10 -70 9 -65 -9
-62 241 1 126 2 230 2 233 0 3 97 5 215 5 l215 0 1 -25z m-8496 -505 c50 -9
106 -18 125 -21 19 -3 46 -7 60 -10 l25 -5 -1 -187 c-1 -103 -5 -187 -10 -187
-12 1 -158 18 -164 20 -3 1 -39 7 -81 14 -42 8 -82 17 -89 21 -9 5 -12 28 -11
67 2 32 4 87 6 123 1 36 3 94 4 129 1 60 2 63 24 58 12 -4 62 -13 112 -22z
m9606 -32 c1 -32 2 -87 4 -123 1 -36 4 -93 5 -128 2 -34 1 -65 -2 -67 -8 -8
-150 -37 -243 -50 -22 -3 -56 -8 -75 -11 l-35 -5 0 191 c0 104 2 190 5 191 3
0 12 2 20 3 8 2 35 6 60 9 49 7 63 10 160 31 104 23 100 24 101 -41z m-8168
-106 c15 -104 23 -160 30 -201 3 -16 -290 -69 -438 -80 -18 -1 -22 10 -37 114
-29 205 -31 240 -11 241 10 1 29 2 43 4 14 1 61 5 104 9 43 4 86 9 95 11 9 1
43 6 76 10 33 3 61 7 62 9 1 1 15 3 30 4 l29 2 17 -123z m6712 109 c11 -2 54
-7 95 -11 41 -4 82 -8 90 -10 8 -1 50 -6 92 -10 l78 -7 -4 -41 c-3 -23 -8 -73
-11 -112 -4 -38 -9 -72 -10 -75 -2 -3 -6 -30 -10 -60 -8 -63 -11 -71 -28 -65
-7 2 -40 6 -74 10 -64 6 -321 50 -354 60 -14 5 -18 12 -14 24 9 31 45 254 45
284 0 28 1 28 43 23 23 -3 51 -8 62 -10z m-7670 -33 c55 -3 171 -6 258 -6
l157 0 1 -31 c0 -39 6 -93 25 -220 7 -54 12 -101 10 -105 -9 -14 -360 -19
-535 -7 -58 3 -106 8 -107 9 -4 3 -7 188 -5 291 l1 89 48 -6 c26 -4 92 -10
147 -14z m8706 -70 c2 -105 -2 -287 -5 -291 -13 -12 -472 -20 -601 -9 -35 3
-40 6 -39 28 1 27 12 120 19 159 3 14 7 56 11 95 3 38 7 72 10 75 3 3 69 5
147 6 128 1 379 12 384 18 1 1 18 3 38 4 l35 3 1 -88z"/>
</g>
</svg>
