{
  "8eacb71ea5322b053f0c5a7d936cba2e": "mutation Story_AddToCart_Mutation(\n  $sku: String\n  $qty: Int\n) {\n  viewer {\n    id\n    cart(sku: $sku, qty: $qty) {\n      id\n      qty\n      updatedAt\n      items {\n        sku\n        qty\n        price\n        listPrice\n        total\n        subtotal\n        sales\n        data {\n          name\n          uri\n          image\n        }\n        id\n      }\n      subtotal\n      total\n    }\n  }\n}\n",
  "6789388819a4e26296ccb69262114d9b": "query App_Query(\n  $defaultFilter: Filter\n) {\n  viewer {\n    id\n    token\n    taxonomy {\n      ...Menu\n      id\n    }\n    cart {\n      ...Cart\n      id\n    }\n    ...Stories\n  }\n}\n\nfragment Cart on Cart {\n  id\n  qty\n  items {\n    ...Item\n    id\n  }\n  subtotal\n  delivery\n  sales\n  total\n}\n\nfragment Item on CartItem {\n  id\n  sku\n  qty\n  price\n  listPrice\n  total\n  subtotal\n  sales\n  data {\n    name\n    image\n  }\n}\n\nfragment Menu on Taxonomy {\n  id\n  index\n  displayName\n  url\n}\n\nfragment Stories on Viewer {\n  productList(defaultFilter: $defaultFilter) {\n    edges {\n      node {\n        ...Story\n      }\n      cursor\n    }\n  }\n}\n\nfragment Story on Product {\n  id\n  sku\n  uri\n  name\n  image\n  priceFormatted\n  listPriceFormatted\n  hasDiscount\n  discountRate\n  description\n}\n",
  "5e9484b33b4d3db37f0bea2f0d34c2cd": "query ProductListRefetchableFragmentQuery(\n  $defaultFilter: Filter\n) {\n  viewer {\n    ...Stories\n    id\n  }\n}\n\nfragment Stories on Viewer {\n  productList(defaultFilter: $defaultFilter) {\n    edges {\n      node {\n        ...Story\n      }\n      cursor\n    }\n  }\n}\n\nfragment Story on Product {\n  id\n  sku\n  uri\n  name\n  image\n  priceFormatted\n  listPriceFormatted\n  hasDiscount\n  discountRate\n  description\n}\n",
  "f6081427cf52ac4c3d64bc6425f1c15f": "mutation Sign_SendVerificationCode_Mutation(\n  $phone: String\n) {\n  sendVerificationCode(phone: $phone) {\n    isNewUser\n    verificationCode\n  }\n}\n",
  "e52d2464f1c75ae2ba6dc0b49ce8ae5a": "mutation Sign_SendVerificationCode_Mutation(\n  $phone: String\n) {\n  sendVerificationCode(phone: $phone) {\n    isNewUser\n  }\n}\n",
  "73eaba0e70a5c7c18f7ae47a98126b20": "mutation Sign_ValidateVerificationCode_Mutation(\n  $phone: String\n  $verificationCode: String\n) {\n  validateVerificationCode(phone: $phone, verificationCode: $verificationCode) {\n    id\n    token\n  }\n}\n",
  "4aba4243efdb910936004abae87ad294": "mutation Sign_CreateAccount_Mutation(\n  $accessToken: String\n  $name: String\n  $lastName: String\n  $email: String\n  $password: String\n) {\n  register(token: $accessToken, name: $name, lastName: $lastName, email: $email, password: $password) {\n    id\n    token\n  }\n}\n",
  "8a93ff7f226fb57f6eab4a29abda3c1c": "mutation Sign_Login_Mutation(\n  $email: String\n  $password: String\n) {\n  login(email: $email, password: $password) {\n    id\n    token\n  }\n}\n",
  "c0361210b46625f905881e870408ce4e": "query App_Query(\n  $defaultFilter: Filter\n) {\n  viewer {\n    id\n    token\n    name\n    lastName\n    taxonomy {\n      ...Menu\n      id\n    }\n    cart {\n      ...Cart\n      id\n    }\n    ...Stories\n  }\n}\n\nfragment Cart on Cart {\n  id\n  qty\n  items {\n    ...Item\n    id\n  }\n  subtotal\n  delivery\n  sales\n  total\n}\n\nfragment Item on CartItem {\n  id\n  sku\n  qty\n  price\n  listPrice\n  total\n  subtotal\n  sales\n  data {\n    name\n    image\n  }\n}\n\nfragment Menu on Taxonomy {\n  id\n  index\n  displayName\n  url\n}\n\nfragment Stories on Viewer {\n  productList(defaultFilter: $defaultFilter) {\n    edges {\n      node {\n        ...Story\n      }\n      cursor\n    }\n  }\n}\n\nfragment Story on Product {\n  id\n  sku\n  uri\n  name\n  image\n  priceFormatted\n  listPriceFormatted\n  hasDiscount\n  discountRate\n  description\n}\n",
  "061b001fc31a596e9c4603b4a860d843": "query App_Query(\n  $defaultFilter: Filter\n) {\n  viewer {\n    id\n    token\n    ...Session\n    taxonomy {\n      ...Menu\n      id\n    }\n    cart {\n      ...Cart\n      id\n    }\n    ...Stories\n  }\n}\n\nfragment Cart on Cart {\n  id\n  qty\n  items {\n    ...Item\n    id\n  }\n  subtotal\n  delivery\n  sales\n  total\n}\n\nfragment Item on CartItem {\n  id\n  sku\n  qty\n  price\n  listPrice\n  total\n  subtotal\n  sales\n  data {\n    name\n    image\n  }\n}\n\nfragment Menu on Taxonomy {\n  id\n  index\n  displayName\n  url\n}\n\nfragment Session on Viewer {\n  id\n  name\n  lastName\n}\n\nfragment Stories on Viewer {\n  productList(defaultFilter: $defaultFilter) {\n    edges {\n      node {\n        ...Story\n      }\n      cursor\n    }\n  }\n}\n\nfragment Story on Product {\n  id\n  sku\n  uri\n  name\n  image\n  priceFormatted\n  listPriceFormatted\n  hasDiscount\n  discountRate\n  description\n}\n",
  "aeb00099f88d369e5246dce2d623be3c": "mutation Sign_CreateAccount_Mutation(\n  $accessToken: String\n  $name: String\n  $lastName: String\n  $email: String\n  $password: String\n  $phone: String\n) {\n  register(token: $accessToken, name: $name, lastName: $lastName, email: $email, password: $password, phone: $phone) {\n    id\n    token\n  }\n}\n",
  "5b2d4ffc5fe296209eeb2380b2d72bd5": "mutation Story_AddToCart_Mutation(\n  $sku: String\n  $qty: Int\n) {\n  viewer {\n    id\n    cart(sku: $sku, qty: $qty) {\n      id\n      qty\n      updatedAt\n      items {\n        sku\n        qty\n        price\n        listPrice\n        total\n        subtotal\n        sales\n        data {\n          name\n          uri\n          image\n        }\n        id\n      }\n      sales\n      subtotal\n      total\n    }\n  }\n}\n",
  "8618b96af5af8c9a3a20124a3b70d102": "query App_Checkout_Query(\n  $address: String\n  $couponRequested: String\n) {\n  viewer {\n    id\n    checkout(address: $address, couponRequested: $couponRequested) {\n      id\n      isEmpty\n      cart {\n        ...Cart\n        id\n      }\n      address {\n        id\n        externalNumber\n        internalNumber\n        neighborhood\n        postalCode\n        reference\n        street\n      }\n      addresses {\n        id\n        externalNumber\n        internalNumber\n        neighborhood\n        postalCode\n        reference\n        street\n      }\n    }\n  }\n}\n\nfragment Cart on Cart {\n  id\n  qty\n  items {\n    ...Item\n    id\n  }\n  subtotal\n  delivery\n  sales\n  total\n}\n\nfragment Item on CartItem {\n  id\n  sku\n  qty\n  price\n  listPrice\n  total\n  subtotal\n  sales\n  data {\n    name\n    image\n  }\n}\n",
  "176349b83907ed1bfc54820c029f2b0a": "query App_Checkout_Query(\n  $address: String\n  $couponRequested: String\n) {\n  viewer {\n    id\n    roles {\n      checkoutTester\n    }\n    checkout(address: $address, couponRequested: $couponRequested) {\n      id\n      isEmpty\n      cart {\n        ...Cart\n        id\n      }\n      address {\n        id\n        externalNumber\n        internalNumber\n        neighborhood\n        postalCode\n        reference\n        street\n      }\n      addresses {\n        id\n        externalNumber\n        internalNumber\n        neighborhood\n        postalCode\n        reference\n        street\n      }\n    }\n  }\n}\n\nfragment Cart on Cart {\n  id\n  qty\n  items {\n    ...Item\n    id\n  }\n  subtotal\n  delivery\n  sales\n  total\n}\n\nfragment Item on CartItem {\n  id\n  sku\n  qty\n  price\n  listPrice\n  total\n  subtotal\n  sales\n  data {\n    name\n    image\n  }\n}\n",
  "8a21fe77777a2dcc10e2fb6792f222e2": "query App_Checkout_Query(\n  $address: String\n  $couponRequested: String\n) {\n  viewer {\n    id\n    name\n    lastName\n    checkout(address: $address, couponRequested: $couponRequested) {\n      id\n      isEmpty\n      cart {\n        ...Cart\n        id\n      }\n      address {\n        id\n        externalNumber\n        internalNumber\n        neighborhood\n        postalCode\n        reference\n        street\n      }\n      addresses {\n        id\n        externalNumber\n        internalNumber\n        neighborhood\n        postalCode\n        reference\n        street\n      }\n    }\n  }\n}\n\nfragment Cart on Cart {\n  id\n  qty\n  items {\n    ...Item\n    id\n  }\n  subtotal\n  delivery\n  sales\n  total\n}\n\nfragment Item on CartItem {\n  id\n  sku\n  qty\n  price\n  listPrice\n  total\n  subtotal\n  sales\n  data {\n    name\n    image\n  }\n}\n",
  "d204b0b76c26cea611717aabb96ae482": "query App_Content_Query(\n  $defaultFilter: Filter\n) {\n  taxonomy {\n    ...Menu\n    id\n  }\n  ...Stories\n}\n\nfragment Menu on Taxonomy {\n  id\n  index\n  displayName\n  url\n}\n\nfragment Stories on Query {\n  productList(defaultFilter: $defaultFilter) {\n    edges {\n      node {\n        ...Story\n      }\n      cursor\n    }\n  }\n}\n\nfragment Story on Product {\n  id\n  sku\n  uri\n  name\n  image\n  priceFormatted\n  listPriceFormatted\n  hasDiscount\n  discountRate\n  description\n}\n",
  "73adb0bf2423021f40e026d15594599c": "query App_Session_Query {\n  viewer {\n    id\n    token\n    ...Session\n    cart {\n      ...Cart\n      id\n    }\n  }\n}\n\nfragment Cart on Cart {\n  id\n  qty\n  items {\n    ...Item\n    id\n  }\n  subtotal\n  delivery\n  sales\n  total\n}\n\nfragment Item on CartItem {\n  id\n  sku\n  qty\n  price\n  listPrice\n  total\n  subtotal\n  sales\n  data {\n    name\n    image\n  }\n}\n\nfragment Session on Viewer {\n  id\n  name\n  lastName\n}\n",
  "be0b456c35803be0d72a5fb759493bde": "query ProductListRefetchableFragmentQuery(\n  $defaultFilter: Filter\n) {\n  ...Stories\n}\n\nfragment Stories on Query {\n  productList(defaultFilter: $defaultFilter) {\n    edges {\n      node {\n        ...Story\n      }\n      cursor\n    }\n  }\n}\n\nfragment Story on Product {\n  id\n  sku\n  uri\n  name\n  image\n  priceFormatted\n  listPriceFormatted\n  hasDiscount\n  discountRate\n  description\n}\n",
  "6589bd26fef47dc18c802d626a6fb4f7": "query Address_Places_Query {\n  places(query: \"Av de los maestros 591\") {\n    id\n    description\n  }\n}\n",
  "9f69144a7ec5658dc7dfdffcd971f9cb": "query Address_Places_Query(\n  $query: String\n) {\n  places(query: $query) {\n    id\n    description\n  }\n}\n",
  "75c95d755242a1fe76f073eb15b79d76": "query Address_Places_Query(\n  $query: String\n) {\n  places(query: $query) {\n    id\n    title\n    description\n  }\n}\n",
  "938db14866fcf61db02fff39a22fc3e6": "query Address_Geocode_Query(\n  $query: String\n) {\n  places(query: $query) {\n    id\n    title\n    description\n  }\n}\n",
  "2e859599c00d36e6a503c75a9e0b00da": "query Address_Geocode_Query(\n  $place: String\n) {\n  getAddressFromPlace(place: $place) {\n    externalNumber\n    neighborhood\n    street\n    postalCode\n    neighborhoodData {\n      id\n      city\n      displayname\n      state\n      municipality\n    }\n  }\n}\n",
  "be0e720a75890846f8b30e43a1abeeff": "mutation Address_Upsert_Mutation(\n  $address: AddressInput\n) {\n  viewer {\n    id\n    address(address: $address) {\n      id\n      street\n      neighborhood\n      postalCode\n      externalNumber\n      internalNumber\n      reference\n    }\n  }\n}\n",
  "96f980102bdbd50fc7a8958e5c89d5f7": "query App_Address_Query {\n  viewer {\n    id\n    checkout {\n      id\n      address {\n        id\n        externalNumber\n        internalNumber\n        neighborhood\n        postalCode\n        reference\n        street\n      }\n      addresses {\n        id\n        externalNumber\n        internalNumber\n        neighborhood\n        postalCode\n        reference\n        street\n      }\n    }\n  }\n}\n",
  "4da524a24df3cbdedf295323594f1b81": "mutation Address_Upsert_Mutation(\n  $address: AddressInput\n) {\n  viewer {\n    id\n    address(address: $address) {\n      id\n      street\n      neighborhood\n      postalCode\n      externalNumber\n      internalNumber\n      reference\n      selected\n    }\n  }\n}\n",
  "f84ed0a2bf41a22911413d1024d51afa": "query App_Checkout_Query(\n  $address: String\n  $couponRequested: String\n) {\n  viewer {\n    id\n    name\n    lastName\n    checkout(address: $address, couponRequested: $couponRequested) {\n      id\n      isEmpty\n      cart {\n        ...Cart\n        id\n      }\n      address {\n        id\n        externalNumber\n        internalNumber\n        neighborhood\n        postalCode\n        reference\n        street\n        selected\n      }\n      addresses {\n        id\n        externalNumber\n        internalNumber\n        neighborhood\n        postalCode\n        reference\n        street\n        selected\n      }\n    }\n  }\n}\n\nfragment Cart on Cart {\n  id\n  qty\n  items {\n    ...Item\n    id\n  }\n  subtotal\n  delivery\n  sales\n  total\n}\n\nfragment Item on CartItem {\n  id\n  sku\n  qty\n  price\n  listPrice\n  total\n  subtotal\n  sales\n  data {\n    name\n    image\n  }\n}\n",
  "8743a93a309e000c3545187e103f370d": "query Address_Geocode_Query(\n  $place: String\n) {\n  getAddressFromPlace(place: $place) {\n    externalNumber\n    neighborhood\n    street\n    postalCode\n    place\n    geopoint {\n      lat\n      lng\n    }\n    neighborhoodData {\n      id\n      city\n      displayname\n      state\n      municipality\n    }\n  }\n}\n",
  "0f45c637cfcd6e52a2f2931b21d8a5c1": "query App_Checkout_Query(\n  $address: String\n  $couponRequested: String\n) {\n  viewer {\n    id\n    name\n    lastName\n    checkout(address: $address, couponRequested: $couponRequested) {\n      id\n      isEmpty\n      cart {\n        ...Cart\n        id\n      }\n      address {\n        id\n        externalNumber\n        internalNumber\n        neighborhood\n        postalCode\n        reference\n        street\n        selected\n        place\n        geopoint {\n          lat\n          lng\n        }\n      }\n      addresses {\n        id\n        externalNumber\n        internalNumber\n        neighborhood\n        postalCode\n        reference\n        street\n        selected\n        place\n        geopoint {\n          lat\n          lng\n        }\n      }\n    }\n  }\n}\n\nfragment Cart on Cart {\n  id\n  qty\n  items {\n    ...Item\n    id\n  }\n  subtotal\n  delivery\n  sales\n  total\n}\n\nfragment Item on CartItem {\n  id\n  sku\n  qty\n  price\n  listPrice\n  total\n  subtotal\n  sales\n  data {\n    name\n    image\n  }\n}\n",
  "db1668282b609b09a6dd10b43a2fab9b": "query App_Address_Query {\n  viewer {\n    id\n    checkout {\n      id\n      address {\n        id\n        externalNumber\n        internalNumber\n        neighborhood\n        postalCode\n        reference\n        street\n        place\n        geopoint {\n          lat\n          lng\n        }\n      }\n      addresses {\n        id\n        externalNumber\n        internalNumber\n        neighborhood\n        postalCode\n        reference\n        street\n        place\n        geopoint {\n          lat\n          lng\n        }\n      }\n    }\n  }\n}\n",
  "22278ea7404167f4489cc832b7129b11": "query App_Checkout_Query(\n  $address: String\n  $couponRequested: String\n) {\n  viewer {\n    id\n    name\n    lastName\n    checkout(address: $address, couponRequested: $couponRequested) {\n      id\n      isEmpty\n      cart {\n        id\n        items {\n          id\n          qty\n          total\n          data {\n            name\n          }\n        }\n        subtotal\n        delivery\n        sales\n        total\n      }\n      address {\n        id\n        externalNumber\n        internalNumber\n        neighborhood\n        postalCode\n        reference\n        street\n        selected\n        place\n        geopoint {\n          lat\n          lng\n        }\n      }\n      addresses {\n        id\n        externalNumber\n        internalNumber\n        neighborhood\n        postalCode\n        reference\n        street\n        selected\n        place\n        geopoint {\n          lat\n          lng\n        }\n      }\n    }\n  }\n}\n",
  "51f80cdc402b4600d2d143fe21448052": "query App_Address_Query(\n  $address: String\n) {\n  viewer {\n    id\n    checkout(address: $address) {\n      id\n      address {\n        id\n        externalNumber\n        internalNumber\n        neighborhood\n        postalCode\n        reference\n        street\n        place\n        geopoint {\n          lat\n          lng\n        }\n      }\n      addresses {\n        id\n        externalNumber\n        internalNumber\n        neighborhood\n        postalCode\n        reference\n        street\n        place\n        geopoint {\n          lat\n          lng\n        }\n      }\n    }\n  }\n}\n",
  "d6cd0ed2cf4ca57dfb602bc1d2cea7d5": "query App_Checkout_Query(\n  $address: String\n  $couponRequested: String\n) {\n  viewer {\n    id\n    name\n    lastName\n    checkout(address: $address, couponRequested: $couponRequested) {\n      id\n      isEmpty\n      cart {\n        id\n        items {\n          id\n          qty\n          total\n          data {\n            name\n          }\n        }\n        subtotal\n        delivery\n        sales\n        total\n      }\n      address {\n        id\n        externalNumber\n        internalNumber\n        neighborhood\n        postalCode\n        reference\n        street\n        selected\n        place\n        geopoint {\n          lat\n          lng\n        }\n      }\n      addresses {\n        id\n        externalNumber\n        internalNumber\n        neighborhood\n        postalCode\n        reference\n        street\n        selected\n        place\n        geopoint {\n          lat\n          lng\n        }\n      }\n      deliveryMetadata {\n        durationInMinutes\n        standardFee\n        extraKilometersFee\n      }\n    }\n  }\n}\n",
  "9b2eb1d3e737fa924da5dfdcf6868b6e": "mutation Checkout_PaypalTransaction_Mutation(\n  $address: String\n  $userData: userDataInput\n  $billingData: billingDataInput\n  $couponRequested: String\n  $paymentProvider: String\n  $orderID: String\n) {\n  viewer {\n    id\n    checkout(address: $address, userData: $userData, billingData: $billingData, couponRequested: $couponRequested) {\n      id\n      transaction(paymentProvider: $paymentProvider, orderID: $orderID) {\n        id\n        status\n        success\n        orderID\n        orderError\n        errorMessage\n        status_detail\n      }\n    }\n  }\n}\n",
  "102ba17051c0da12933ed7857ec030e9": "mutation Checkout_Paypal_Mutation(\n  $address: String\n  $userData: userDataInput\n  $couponRequested: String\n) {\n  viewer {\n    id\n    paypalTransaction(address: $address, userData: $userData, couponRequested: $couponRequested)\n  }\n}\n",
  "d9494dee1c35490394b3632da9e9c538": "query App_Checkout_Query(\n  $address: String\n  $couponRequested: String\n) {\n  viewer {\n    id\n    name\n    lastName\n    phone\n    email\n    checkout(address: $address, couponRequested: $couponRequested) {\n      id\n      isEmpty\n      cart {\n        id\n        items {\n          id\n          qty\n          total\n          data {\n            name\n          }\n        }\n        subtotal\n        delivery\n        sales\n        total\n      }\n      address {\n        id\n        externalNumber\n        internalNumber\n        neighborhood\n        postalCode\n        reference\n        street\n        selected\n        place\n        geopoint {\n          lat\n          lng\n        }\n      }\n      addresses {\n        id\n        externalNumber\n        internalNumber\n        neighborhood\n        postalCode\n        reference\n        street\n        selected\n        place\n        geopoint {\n          lat\n          lng\n        }\n      }\n      deliveryMetadata {\n        durationInMinutes\n        standardFee\n        extraKilometersFee\n      }\n    }\n  }\n}\n",
  "3905a754d621f06d281f3eb3b838e12c": "mutation Checkout_Paypal_Mutation(\n  $address: String\n  $userData: userDataInput\n  $couponRequested: String\n  $mode: String\n) {\n  viewer {\n    id\n    paypalTransaction(address: $address, userData: $userData, couponRequested: $couponRequested, mode: $mode)\n  }\n}\n",
  "68c5631336098b87dde0ddaab31f1e9a": "mutation Checkout_PaypalTransaction_Mutation(\n  $address: String\n  $userData: userDataInput\n  $billingData: billingDataInput\n  $couponRequested: String\n  $paymentProvider: String\n  $orderID: String\n  $mode: String\n) {\n  viewer {\n    id\n    checkout(address: $address, userData: $userData, billingData: $billingData, couponRequested: $couponRequested) {\n      id\n      transaction(paymentProvider: $paymentProvider, orderID: $orderID, mode: $mode) {\n        id\n        status\n        success\n        orderID\n        orderError\n        errorMessage\n        status_detail\n      }\n    }\n  }\n}\n",
  "e68dadc52c0c37debe089bac9e928015": "query App_Address_Query(\n  $address: AddressInput\n) {\n  viewer {\n    id\n    address(address: $address) {\n      id\n      externalNumber\n      internalNumber\n      neighborhood\n      postalCode\n      reference\n      street\n      place\n      geopoint {\n        lat\n        lng\n      }\n    }\n    addresses {\n      id\n      externalNumber\n      internalNumber\n      neighborhood\n      postalCode\n      reference\n      street\n      place\n      geopoint {\n        lat\n        lng\n      }\n    }\n  }\n}\n",
  "a72fdfc053404ea58c502f156ff01a19": "query App_Confirmation_Query(\n  $order: String\n) {\n  viewer {\n    id\n    order(order: $order) {\n      id\n      isEmpty\n      status\n      chargeDescription\n      cart {\n        id\n        items {\n          id\n          qty\n          total\n          data {\n            name\n          }\n        }\n        subtotal\n        delivery\n        sales\n        total\n      }\n      address {\n        id\n        externalNumber\n        internalNumber\n        neighborhood\n        postalCode\n        reference\n        street\n      }\n      transaction {\n        id\n        status\n        success\n        orderID\n        status_detail\n      }\n    }\n  }\n}\n",
  "e057943e059a0b760fbf73beee33a2ee": "query App_Confirmation_Query(\n  $order: String\n) {\n  viewer {\n    id\n    order(order: $order) {\n      id\n      isEmpty\n      status\n      chargeDescription\n      cart {\n        id\n        items {\n          id\n          qty\n          total\n          data {\n            name\n          }\n        }\n        subtotal\n        delivery\n        sales\n        total\n      }\n      address {\n        id\n        externalNumber\n        internalNumber\n        neighborhood\n        postalCode\n        reference\n        street\n      }\n      transaction {\n        id\n        status\n        success\n        orderID\n        status_detail\n        date_created\n      }\n    }\n  }\n}\n",
  "bb8611ecb0fec492e50fae3506df8c4e": "query App_Confirmation_Query(\n  $order: String\n) {\n  viewer {\n    id\n    order(order: $order) {\n      id\n      isEmpty\n      status\n      chargeDescription\n      cart {\n        id\n        items {\n          id\n          qty\n          total\n          data {\n            name\n          }\n        }\n        subtotal\n        delivery\n        sales\n        total\n      }\n      address {\n        id\n        externalNumber\n        internalNumber\n        neighborhood\n        postalCode\n        reference\n        street\n        geopoint {\n          lat\n          lng\n        }\n      }\n      transaction {\n        id\n        status\n        success\n        orderID\n        status_detail\n        date_created\n      }\n    }\n  }\n}\n"
}